<mxfile host="app.diagrams.net" modified="2023-09-05T10:52:45.591Z" agent="Mozilla/5.0 (Windows NT 10.0; Win64; x64) AppleWebKit/537.36 (KHTML, like Gecko) Chrome/116.0.0.0 Safari/537.36" etag="1wrTIYY3jeC--1-hofds" version="21.7.2" type="gitlab">
  <diagram name="Page-1" id="03018318-947c-dd8e-b7a3-06fadd420f32">
    <mxGraphModel dx="2600" dy="809" grid="1" gridSize="10" guides="1" tooltips="1" connect="1" arrows="1" fold="1" page="1" pageScale="1" pageWidth="1100" pageHeight="850" background="none" math="0" shadow="0">
      <root>
        <mxCell id="0" />
        <mxCell id="1" parent="0" />
        <mxCell id="VwUBWNjt5QYtr1P_Xo0f-1" value="ALL NEWS" style="whiteSpace=wrap;html=1;rounded=0;shadow=0;labelBackgroundColor=none;strokeWidth=1;fontFamily=Verdana;fontSize=28;align=center;comic=1;" vertex="1" parent="1">
          <mxGeometry x="58" y="60" width="190" height="50" as="geometry" />
        </mxCell>
        <mxCell id="VwUBWNjt5QYtr1P_Xo0f-2" value="" style="line;strokeWidth=1;html=1;rounded=0;shadow=0;labelBackgroundColor=none;fillColor=none;fontFamily=Verdana;fontSize=14;fontColor=#000000;align=center;comic=1;" vertex="1" parent="1">
          <mxGeometry y="156" width="1060" height="10" as="geometry" />
        </mxCell>
        <mxCell id="VwUBWNjt5QYtr1P_Xo0f-3" value="" style="whiteSpace=wrap;html=1;rounded=0;shadow=0;labelBackgroundColor=none;strokeWidth=1;fillColor=none;fontFamily=Verdana;fontSize=12;align=center;comic=1;" vertex="1" parent="1">
          <mxGeometry x="80" y="280" width="250" height="230" as="geometry" />
        </mxCell>
        <mxCell id="VwUBWNjt5QYtr1P_Xo0f-4" value="LOGO" style="whiteSpace=wrap;html=1;rounded=0;shadow=0;labelBackgroundColor=none;strokeWidth=1;fontFamily=Verdana;fontSize=28;align=center;comic=1;" vertex="1" parent="1">
          <mxGeometry x="354" y="50" width="190" height="50" as="geometry" />
        </mxCell>
        <mxCell id="VwUBWNjt5QYtr1P_Xo0f-5" value="LOGIN" style="whiteSpace=wrap;html=1;rounded=0;shadow=0;labelBackgroundColor=none;strokeWidth=1;fontFamily=Verdana;fontSize=28;align=center;comic=1;" vertex="1" parent="1">
          <mxGeometry x="650" y="60" width="190" height="50" as="geometry" />
        </mxCell>
        <mxCell id="VwUBWNjt5QYtr1P_Xo0f-6" value="SIGN UP" style="whiteSpace=wrap;html=1;rounded=0;shadow=0;labelBackgroundColor=none;strokeWidth=1;fontFamily=Verdana;fontSize=28;align=center;comic=1;" vertex="1" parent="1">
          <mxGeometry x="880" y="60" width="190" height="50" as="geometry" />
        </mxCell>
        <mxCell id="VwUBWNjt5QYtr1P_Xo0f-7" value="" style="whiteSpace=wrap;html=1;rounded=0;shadow=0;labelBackgroundColor=none;strokeWidth=1;fontFamily=Verdana;fontSize=28;align=center;comic=1;" vertex="1" parent="1">
          <mxGeometry x="210" y="340" width="110" height="30" as="geometry" />
        </mxCell>
        <mxCell id="VwUBWNjt5QYtr1P_Xo0f-8" value="NEWS" style="text;html=1;strokeColor=none;fillColor=none;align=center;verticalAlign=middle;whiteSpace=wrap;rounded=0;fontSize=16;" vertex="1" parent="1">
          <mxGeometry x="235" y="340" width="60" height="30" as="geometry" />
        </mxCell>
        <mxCell id="VwUBWNjt5QYtr1P_Xo0f-9" value="" style="whiteSpace=wrap;html=1;rounded=0;shadow=0;labelBackgroundColor=none;strokeWidth=1;fontFamily=Verdana;fontSize=28;align=center;comic=1;" vertex="1" parent="1">
          <mxGeometry x="80" y="460" width="110" height="30" as="geometry" />
        </mxCell>
        <mxCell id="VwUBWNjt5QYtr1P_Xo0f-10" value="DETAILS" style="text;html=1;strokeColor=none;fillColor=none;align=center;verticalAlign=middle;whiteSpace=wrap;rounded=0;fontSize=16;" vertex="1" parent="1">
          <mxGeometry x="80" y="460" width="60" height="30" as="geometry" />
        </mxCell>
        <mxCell id="VwUBWNjt5QYtr1P_Xo0f-11" value="" style="whiteSpace=wrap;html=1;rounded=0;shadow=0;labelBackgroundColor=none;strokeWidth=1;fillColor=none;fontFamily=Verdana;fontSize=12;align=center;comic=1;" vertex="1" parent="1">
          <mxGeometry x="790" y="290" width="250" height="230" as="geometry" />
        </mxCell>
        <mxCell id="VwUBWNjt5QYtr1P_Xo0f-12" value="" style="whiteSpace=wrap;html=1;rounded=0;shadow=0;labelBackgroundColor=none;strokeWidth=1;fontFamily=Verdana;fontSize=28;align=center;comic=1;" vertex="1" parent="1">
          <mxGeometry x="920" y="350" width="110" height="30" as="geometry" />
        </mxCell>
        <mxCell id="VwUBWNjt5QYtr1P_Xo0f-13" value="NEWS" style="text;html=1;strokeColor=none;fillColor=none;align=center;verticalAlign=middle;whiteSpace=wrap;rounded=0;fontSize=16;" vertex="1" parent="1">
          <mxGeometry x="945" y="350" width="60" height="30" as="geometry" />
        </mxCell>
        <mxCell id="VwUBWNjt5QYtr1P_Xo0f-14" value="" style="whiteSpace=wrap;html=1;rounded=0;shadow=0;labelBackgroundColor=none;strokeWidth=1;fontFamily=Verdana;fontSize=28;align=center;comic=1;" vertex="1" parent="1">
          <mxGeometry x="790" y="470" width="110" height="30" as="geometry" />
        </mxCell>
        <mxCell id="VwUBWNjt5QYtr1P_Xo0f-15" value="DETAILS" style="text;html=1;strokeColor=none;fillColor=none;align=center;verticalAlign=middle;whiteSpace=wrap;rounded=0;fontSize=16;" vertex="1" parent="1">
          <mxGeometry x="790" y="470" width="60" height="30" as="geometry" />
        </mxCell>
        <mxCell id="VwUBWNjt5QYtr1P_Xo0f-16" value="" style="whiteSpace=wrap;html=1;rounded=0;shadow=0;labelBackgroundColor=none;strokeWidth=1;fillColor=none;fontFamily=Verdana;fontSize=12;align=center;comic=1;" vertex="1" parent="1">
          <mxGeometry x="425" y="280" width="250" height="230" as="geometry" />
        </mxCell>
        <mxCell id="VwUBWNjt5QYtr1P_Xo0f-17" value="" style="whiteSpace=wrap;html=1;rounded=0;shadow=0;labelBackgroundColor=none;strokeWidth=1;fontFamily=Verdana;fontSize=28;align=center;comic=1;" vertex="1" parent="1">
          <mxGeometry x="565" y="330" width="110" height="30" as="geometry" />
        </mxCell>
        <mxCell id="VwUBWNjt5QYtr1P_Xo0f-18" value="NEWS" style="text;html=1;strokeColor=none;fillColor=none;align=center;verticalAlign=middle;whiteSpace=wrap;rounded=0;fontSize=16;" vertex="1" parent="1">
          <mxGeometry x="590" y="330" width="60" height="30" as="geometry" />
        </mxCell>
        <mxCell id="VwUBWNjt5QYtr1P_Xo0f-19" value="" style="whiteSpace=wrap;html=1;rounded=0;shadow=0;labelBackgroundColor=none;strokeWidth=1;fontFamily=Verdana;fontSize=28;align=center;comic=1;" vertex="1" parent="1">
          <mxGeometry x="435" y="450" width="110" height="30" as="geometry" />
        </mxCell>
        <mxCell id="VwUBWNjt5QYtr1P_Xo0f-20" value="DETAILS" style="text;html=1;strokeColor=none;fillColor=none;align=center;verticalAlign=middle;whiteSpace=wrap;rounded=0;fontSize=16;" vertex="1" parent="1">
          <mxGeometry x="435" y="450" width="60" height="30" as="geometry" />
        </mxCell>
        <mxCell id="VwUBWNjt5QYtr1P_Xo0f-21" value="" style="line;strokeWidth=1;html=1;rounded=0;shadow=0;labelBackgroundColor=none;fillColor=none;fontFamily=Verdana;fontSize=14;fontColor=#000000;align=center;comic=1;" vertex="1" parent="1">
          <mxGeometry y="745" width="1060" height="10" as="geometry" />
        </mxCell>
        <mxCell id="VwUBWNjt5QYtr1P_Xo0f-22" value="" style="whiteSpace=wrap;html=1;rounded=0;shadow=0;labelBackgroundColor=none;strokeWidth=1;fontFamily=Verdana;fontSize=28;align=center;comic=1;" vertex="1" parent="1">
          <mxGeometry x="10" y="760" width="110" height="30" as="geometry" />
        </mxCell>
        <mxCell id="VwUBWNjt5QYtr1P_Xo0f-23" value="LOGO" style="text;html=1;strokeColor=none;fillColor=none;align=center;verticalAlign=middle;whiteSpace=wrap;rounded=0;fontSize=16;" vertex="1" parent="1">
          <mxGeometry x="10" y="760" width="60" height="30" as="geometry" />
        </mxCell>
        <mxCell id="VwUBWNjt5QYtr1P_Xo0f-24" value="&lt;font style=&quot;font-size: 7px;&quot;&gt;AGILE SOFTWARE MANAGEMENT SOFTWARE&lt;/font&gt;" style="text;html=1;strokeColor=none;fillColor=none;align=center;verticalAlign=middle;whiteSpace=wrap;rounded=0;fontSize=16;" vertex="1" parent="1">
          <mxGeometry x="-100" y="800" width="380" height="30" as="geometry" />
        </mxCell>
        <mxCell id="VwUBWNjt5QYtr1P_Xo0f-25" value="&lt;span style=&quot;font-size: 7px;&quot;&gt;E.Pharmacist,Antumn,Semester 2023&lt;/span&gt;" style="text;html=1;strokeColor=none;fillColor=none;align=center;verticalAlign=middle;whiteSpace=wrap;rounded=0;fontSize=16;" vertex="1" parent="1">
          <mxGeometry x="770" y="790" width="380" height="30" as="geometry" />
        </mxCell>
        <mxCell id="VwUBWNjt5QYtr1P_Xo0f-26" value="" style="whiteSpace=wrap;html=1;rounded=0;shadow=0;labelBackgroundColor=none;strokeWidth=1;fontFamily=Verdana;fontSize=28;align=center;comic=1;" vertex="1" parent="1">
          <mxGeometry x="40" y="900" width="110" height="40" as="geometry" />
        </mxCell>
        <mxCell id="VwUBWNjt5QYtr1P_Xo0f-27" value="ALL NEWS" style="text;html=1;strokeColor=none;fillColor=none;align=center;verticalAlign=middle;whiteSpace=wrap;rounded=0;fontSize=16;" vertex="1" parent="1">
          <mxGeometry x="45" y="910" width="90" height="30" as="geometry" />
        </mxCell>
        <mxCell id="VwUBWNjt5QYtr1P_Xo0f-28" value="" style="whiteSpace=wrap;html=1;rounded=0;shadow=0;labelBackgroundColor=none;strokeWidth=1;fontFamily=Verdana;fontSize=28;align=center;comic=1;" vertex="1" parent="1">
          <mxGeometry x="890" y="910" width="110" height="40" as="geometry" />
        </mxCell>
        <mxCell id="VwUBWNjt5QYtr1P_Xo0f-29" value="LOGO" style="text;html=1;strokeColor=none;fillColor=none;align=center;verticalAlign=middle;whiteSpace=wrap;rounded=0;fontSize=16;" vertex="1" parent="1">
          <mxGeometry x="895" y="920" width="90" height="30" as="geometry" />
        </mxCell>
        <mxCell id="VwUBWNjt5QYtr1P_Xo0f-30" value="" style="line;strokeWidth=1;html=1;rounded=0;shadow=0;labelBackgroundColor=none;fillColor=none;fontFamily=Verdana;fontSize=14;fontColor=#000000;align=center;comic=1;" vertex="1" parent="1">
          <mxGeometry x="10" y="990" width="1060" height="10" as="geometry" />
        </mxCell>
        <mxCell id="VwUBWNjt5QYtr1P_Xo0f-31" value="" style="whiteSpace=wrap;html=1;rounded=0;shadow=0;labelBackgroundColor=none;strokeWidth=1;fillColor=none;fontFamily=Verdana;fontSize=12;align=center;comic=1;" vertex="1" parent="1">
          <mxGeometry x="175" y="1120" width="715" height="370" as="geometry" />
        </mxCell>
        <mxCell id="VwUBWNjt5QYtr1P_Xo0f-32" value="&lt;font style=&quot;font-size: 29px;&quot;&gt;LOG INTO&amp;nbsp; YOUR ACCOUNT&lt;/font&gt;" style="text;html=1;strokeColor=none;fillColor=none;align=center;verticalAlign=middle;whiteSpace=wrap;rounded=0;fontSize=16;" vertex="1" parent="1">
          <mxGeometry x="320" y="1170" width="415" height="30" as="geometry" />
        </mxCell>
        <mxCell id="VwUBWNjt5QYtr1P_Xo0f-33" value="Password" style="text;html=1;strokeColor=none;fillColor=none;align=center;verticalAlign=middle;whiteSpace=wrap;rounded=0;fontSize=16;" vertex="1" parent="1">
          <mxGeometry x="244" y="1330" width="60" height="30" as="geometry" />
        </mxCell>
        <mxCell id="VwUBWNjt5QYtr1P_Xo0f-34" value="Email Address" style="text;html=1;strokeColor=none;fillColor=none;align=center;verticalAlign=middle;whiteSpace=wrap;rounded=0;fontSize=16;" vertex="1" parent="1">
          <mxGeometry x="230" y="1230" width="120" height="30" as="geometry" />
        </mxCell>
        <mxCell id="VwUBWNjt5QYtr1P_Xo0f-35" value="" style="whiteSpace=wrap;html=1;rounded=0;shadow=0;labelBackgroundColor=none;strokeWidth=1;fontFamily=Verdana;fontSize=28;align=center;comic=1;" vertex="1" parent="1">
          <mxGeometry x="235" y="1275" width="605" height="40" as="geometry" />
        </mxCell>
        <mxCell id="VwUBWNjt5QYtr1P_Xo0f-36" value="" style="whiteSpace=wrap;html=1;rounded=0;shadow=0;labelBackgroundColor=none;strokeWidth=1;fontFamily=Verdana;fontSize=28;align=center;comic=1;" vertex="1" parent="1">
          <mxGeometry x="237.5" y="1380" width="605" height="40" as="geometry" />
        </mxCell>
        <mxCell id="VwUBWNjt5QYtr1P_Xo0f-37" value="" style="whiteSpace=wrap;html=1;rounded=0;shadow=0;labelBackgroundColor=none;strokeWidth=1;fontFamily=Verdana;fontSize=28;align=center;comic=1;fillColor=#1ba1e2;fontColor=#ffffff;strokeColor=#006EAF;" vertex="1" parent="1">
          <mxGeometry x="237.5" y="1440" width="132.5" height="40" as="geometry" />
        </mxCell>
        <mxCell id="VwUBWNjt5QYtr1P_Xo0f-38" value="LOGIN" style="text;html=1;strokeColor=none;fillColor=none;align=center;verticalAlign=middle;whiteSpace=wrap;rounded=0;fontSize=16;" vertex="1" parent="1">
          <mxGeometry x="270" y="1445" width="60" height="30" as="geometry" />
        </mxCell>
        <mxCell id="VwUBWNjt5QYtr1P_Xo0f-39" value="" style="line;strokeWidth=1;html=1;rounded=0;shadow=0;labelBackgroundColor=none;fillColor=none;fontFamily=Verdana;fontSize=14;fontColor=#000000;align=center;comic=1;" vertex="1" parent="1">
          <mxGeometry y="1595" width="1060" height="10" as="geometry" />
        </mxCell>
        <mxCell id="VwUBWNjt5QYtr1P_Xo0f-40" value="" style="whiteSpace=wrap;html=1;rounded=0;shadow=0;labelBackgroundColor=none;strokeWidth=1;fontFamily=Verdana;fontSize=28;align=center;comic=1;" vertex="1" parent="1">
          <mxGeometry x="10" y="1610" width="110" height="30" as="geometry" />
        </mxCell>
        <mxCell id="VwUBWNjt5QYtr1P_Xo0f-41" value="LOGO" style="text;html=1;strokeColor=none;fillColor=none;align=center;verticalAlign=middle;whiteSpace=wrap;rounded=0;fontSize=16;" vertex="1" parent="1">
          <mxGeometry x="10" y="1610" width="60" height="30" as="geometry" />
        </mxCell>
        <mxCell id="VwUBWNjt5QYtr1P_Xo0f-42" value="" style="whiteSpace=wrap;html=1;rounded=0;shadow=0;labelBackgroundColor=none;strokeColor=#000000;strokeWidth=1;fillColor=none;fontFamily=Verdana;fontSize=12;fontColor=#000000;align=center;comic=1;" vertex="1" parent="1">
          <mxGeometry y="870" width="1060" height="810" as="geometry" />
        </mxCell>
        <mxCell id="VwUBWNjt5QYtr1P_Xo0f-43" value="" style="whiteSpace=wrap;html=1;rounded=0;shadow=0;labelBackgroundColor=none;strokeColor=#000000;strokeWidth=1;fillColor=none;fontFamily=Verdana;fontSize=12;fontColor=#000000;align=center;comic=1;" vertex="1" parent="1">
          <mxGeometry x="10" y="40" width="1060" height="810" as="geometry" />
        </mxCell>
        <mxCell id="VwUBWNjt5QYtr1P_Xo0f-44" value="&lt;font style=&quot;font-size: 7px;&quot;&gt;AGILE SOFTWARE MANAGEMENT SOFTWARE&lt;/font&gt;" style="text;html=1;strokeColor=none;fillColor=none;align=center;verticalAlign=middle;whiteSpace=wrap;rounded=0;fontSize=16;" vertex="1" parent="1">
          <mxGeometry x="-87.5" y="1650" width="380" height="30" as="geometry" />
        </mxCell>
        <mxCell id="VwUBWNjt5QYtr1P_Xo0f-45" value="&lt;span style=&quot;font-size: 7px;&quot;&gt;E.Pharmacist,Antumn,Semester 2023&lt;/span&gt;" style="text;html=1;strokeColor=none;fillColor=none;align=center;verticalAlign=middle;whiteSpace=wrap;rounded=0;fontSize=16;" vertex="1" parent="1">
          <mxGeometry x="782.5" y="1640" width="380" height="30" as="geometry" />
        </mxCell>
        <mxCell id="VwUBWNjt5QYtr1P_Xo0f-46" value="" style="whiteSpace=wrap;html=1;rounded=0;shadow=0;labelBackgroundColor=none;strokeColor=#000000;strokeWidth=1;fillColor=none;fontFamily=Verdana;fontSize=12;fontColor=#000000;align=center;comic=1;" vertex="1" parent="1">
          <mxGeometry x="-20" y="1780" width="1060" height="810" as="geometry" />
        </mxCell>
        <mxCell id="VwUBWNjt5QYtr1P_Xo0f-47" value="" style="whiteSpace=wrap;html=1;rounded=0;shadow=0;labelBackgroundColor=none;strokeWidth=1;fontFamily=Verdana;fontSize=28;align=center;comic=1;" vertex="1" parent="1">
          <mxGeometry x="20" y="1800" width="110" height="40" as="geometry" />
        </mxCell>
        <mxCell id="VwUBWNjt5QYtr1P_Xo0f-48" value="ALL NEWS" style="text;html=1;strokeColor=none;fillColor=none;align=center;verticalAlign=middle;whiteSpace=wrap;rounded=0;fontSize=16;" vertex="1" parent="1">
          <mxGeometry x="25" y="1810" width="90" height="30" as="geometry" />
        </mxCell>
        <mxCell id="VwUBWNjt5QYtr1P_Xo0f-49" value="" style="whiteSpace=wrap;html=1;rounded=0;shadow=0;labelBackgroundColor=none;strokeWidth=1;fontFamily=Verdana;fontSize=28;align=center;comic=1;" vertex="1" parent="1">
          <mxGeometry x="870" y="1810" width="110" height="40" as="geometry" />
        </mxCell>
        <mxCell id="VwUBWNjt5QYtr1P_Xo0f-50" value="LOGO" style="text;html=1;strokeColor=none;fillColor=none;align=center;verticalAlign=middle;whiteSpace=wrap;rounded=0;fontSize=16;" vertex="1" parent="1">
          <mxGeometry x="875" y="1820" width="90" height="30" as="geometry" />
        </mxCell>
        <mxCell id="VwUBWNjt5QYtr1P_Xo0f-51" value="" style="line;strokeWidth=1;html=1;rounded=0;shadow=0;labelBackgroundColor=none;fillColor=none;fontFamily=Verdana;fontSize=14;fontColor=#000000;align=center;comic=1;" vertex="1" parent="1">
          <mxGeometry x="-10" y="1890" width="1060" height="10" as="geometry" />
        </mxCell>
        <mxCell id="VwUBWNjt5QYtr1P_Xo0f-52" value="" style="whiteSpace=wrap;html=1;rounded=0;shadow=0;labelBackgroundColor=none;strokeWidth=1;fillColor=none;fontFamily=Verdana;fontSize=12;align=center;comic=1;" vertex="1" parent="1">
          <mxGeometry x="155" y="1945" width="715" height="560" as="geometry" />
        </mxCell>
        <mxCell id="VwUBWNjt5QYtr1P_Xo0f-53" value="&lt;span style=&quot;font-size: 29px;&quot;&gt;Create new account&lt;/span&gt;" style="text;html=1;strokeColor=none;fillColor=none;align=center;verticalAlign=middle;whiteSpace=wrap;rounded=0;fontSize=16;" vertex="1" parent="1">
          <mxGeometry x="282.5" y="1980" width="415" height="30" as="geometry" />
        </mxCell>
        <mxCell id="VwUBWNjt5QYtr1P_Xo0f-54" value="Password" style="text;html=1;strokeColor=none;fillColor=none;align=center;verticalAlign=middle;whiteSpace=wrap;rounded=0;fontSize=16;" vertex="1" parent="1">
          <mxGeometry x="224" y="2174" width="60" height="30" as="geometry" />
        </mxCell>
        <mxCell id="VwUBWNjt5QYtr1P_Xo0f-55" value="Name" style="text;html=1;strokeColor=none;fillColor=none;align=center;verticalAlign=middle;whiteSpace=wrap;rounded=0;fontSize=16;" vertex="1" parent="1">
          <mxGeometry x="198" y="2014" width="120" height="30" as="geometry" />
        </mxCell>
        <mxCell id="VwUBWNjt5QYtr1P_Xo0f-56" value="" style="whiteSpace=wrap;html=1;rounded=0;shadow=0;labelBackgroundColor=none;strokeWidth=1;fontFamily=Verdana;fontSize=28;align=center;comic=1;" vertex="1" parent="1">
          <mxGeometry x="215" y="2045" width="605" height="40" as="geometry" />
        </mxCell>
        <mxCell id="VwUBWNjt5QYtr1P_Xo0f-57" value="" style="whiteSpace=wrap;html=1;rounded=0;shadow=0;labelBackgroundColor=none;strokeWidth=1;fontFamily=Verdana;fontSize=28;align=center;comic=1;" vertex="1" parent="1">
          <mxGeometry x="217.5" y="2214" width="605" height="40" as="geometry" />
        </mxCell>
        <mxCell id="VwUBWNjt5QYtr1P_Xo0f-58" value="" style="whiteSpace=wrap;html=1;rounded=0;shadow=0;labelBackgroundColor=none;strokeWidth=1;fontFamily=Verdana;fontSize=28;align=center;comic=1;fillColor=#1ba1e2;fontColor=#ffffff;strokeColor=#006EAF;" vertex="1" parent="1">
          <mxGeometry x="224" y="2430" width="132.5" height="40" as="geometry" />
        </mxCell>
        <mxCell id="VwUBWNjt5QYtr1P_Xo0f-59" value="LOGIN" style="text;html=1;strokeColor=none;fillColor=none;align=center;verticalAlign=middle;whiteSpace=wrap;rounded=0;fontSize=16;" vertex="1" parent="1">
          <mxGeometry x="260.25" y="2430" width="60" height="30" as="geometry" />
        </mxCell>
        <mxCell id="VwUBWNjt5QYtr1P_Xo0f-60" value="" style="line;strokeWidth=1;html=1;rounded=0;shadow=0;labelBackgroundColor=none;fillColor=none;fontFamily=Verdana;fontSize=14;fontColor=#000000;align=center;comic=1;" vertex="1" parent="1">
          <mxGeometry x="-20" y="2495" width="1060" height="10" as="geometry" />
        </mxCell>
        <mxCell id="VwUBWNjt5QYtr1P_Xo0f-61" value="" style="whiteSpace=wrap;html=1;rounded=0;shadow=0;labelBackgroundColor=none;strokeWidth=1;fontFamily=Verdana;fontSize=28;align=center;comic=1;" vertex="1" parent="1">
          <mxGeometry x="-10" y="2510" width="110" height="30" as="geometry" />
        </mxCell>
        <mxCell id="VwUBWNjt5QYtr1P_Xo0f-62" value="LOGO" style="text;html=1;strokeColor=none;fillColor=none;align=center;verticalAlign=middle;whiteSpace=wrap;rounded=0;fontSize=16;" vertex="1" parent="1">
          <mxGeometry x="-10" y="2510" width="60" height="30" as="geometry" />
        </mxCell>
        <mxCell id="VwUBWNjt5QYtr1P_Xo0f-63" value="&lt;font style=&quot;font-size: 7px;&quot;&gt;AGILE SOFTWARE MANAGEMENT SOFTWARE&lt;/font&gt;" style="text;html=1;strokeColor=none;fillColor=none;align=center;verticalAlign=middle;whiteSpace=wrap;rounded=0;fontSize=16;" vertex="1" parent="1">
          <mxGeometry x="-120" y="2550" width="380" height="30" as="geometry" />
        </mxCell>
        <mxCell id="VwUBWNjt5QYtr1P_Xo0f-64" value="Email Address" style="text;html=1;strokeColor=none;fillColor=none;align=center;verticalAlign=middle;whiteSpace=wrap;rounded=0;fontSize=16;" vertex="1" parent="1">
          <mxGeometry x="205" y="2094" width="120" height="30" as="geometry" />
        </mxCell>
        <mxCell id="VwUBWNjt5QYtr1P_Xo0f-65" value="" style="whiteSpace=wrap;html=1;rounded=0;shadow=0;labelBackgroundColor=none;strokeWidth=1;fontFamily=Verdana;fontSize=28;align=center;comic=1;" vertex="1" parent="1">
          <mxGeometry x="210" y="2139" width="605" height="40" as="geometry" />
        </mxCell>
        <mxCell id="VwUBWNjt5QYtr1P_Xo0f-66" value="Confirm Password" style="text;html=1;strokeColor=none;fillColor=none;align=center;verticalAlign=middle;whiteSpace=wrap;rounded=0;fontSize=16;" vertex="1" parent="1">
          <mxGeometry x="224" y="2264" width="146" height="30" as="geometry" />
        </mxCell>
        <mxCell id="VwUBWNjt5QYtr1P_Xo0f-67" value="" style="whiteSpace=wrap;html=1;rounded=0;shadow=0;labelBackgroundColor=none;strokeWidth=1;fontFamily=Verdana;fontSize=28;align=center;comic=1;" vertex="1" parent="1">
          <mxGeometry x="217.5" y="2304" width="605" height="40" as="geometry" />
        </mxCell>
        <mxCell id="VwUBWNjt5QYtr1P_Xo0f-68" value="&lt;span style=&quot;font-size: 7px;&quot;&gt;E.Pharmacist,Antumn,Semester 2023&lt;/span&gt;" style="text;html=1;strokeColor=none;fillColor=none;align=center;verticalAlign=middle;whiteSpace=wrap;rounded=0;fontSize=16;" vertex="1" parent="1">
          <mxGeometry x="750" y="2540" width="380" height="30" as="geometry" />
        </mxCell>
        <mxCell id="VwUBWNjt5QYtr1P_Xo0f-70" value="Role" style="text;html=1;strokeColor=none;fillColor=none;align=center;verticalAlign=middle;whiteSpace=wrap;rounded=0;fontSize=16;" vertex="1" parent="1">
          <mxGeometry x="208" y="2350" width="146" height="30" as="geometry" />
        </mxCell>
        <mxCell id="VwUBWNjt5QYtr1P_Xo0f-71" value="" style="ellipse;whiteSpace=wrap;html=1;aspect=fixed;" vertex="1" parent="1">
          <mxGeometry x="280.5" y="2390" width="12" height="12" as="geometry" />
        </mxCell>
        <mxCell id="VwUBWNjt5QYtr1P_Xo0f-72" value="user" style="text;html=1;strokeColor=none;fillColor=none;align=center;verticalAlign=middle;whiteSpace=wrap;rounded=0;fontSize=16;" vertex="1" parent="1">
          <mxGeometry x="304" y="2380" width="56" height="30" as="geometry" />
        </mxCell>
        <mxCell id="VwUBWNjt5QYtr1P_Xo0f-73" value="" style="ellipse;whiteSpace=wrap;html=1;aspect=fixed;" vertex="1" parent="1">
          <mxGeometry x="409.25" y="2390" width="12" height="12" as="geometry" />
        </mxCell>
        <mxCell id="VwUBWNjt5QYtr1P_Xo0f-74" value="Subject matter expert" style="text;html=1;strokeColor=none;fillColor=none;align=center;verticalAlign=middle;whiteSpace=wrap;rounded=0;fontSize=16;" vertex="1" parent="1">
          <mxGeometry x="432.75" y="2380" width="167.25" height="30" as="geometry" />
        </mxCell>
        <mxCell id="VwUBWNjt5QYtr1P_Xo0f-76" value="user" style="text;html=1;strokeColor=none;fillColor=none;align=center;verticalAlign=middle;whiteSpace=wrap;rounded=0;fontSize=16;" vertex="1" parent="1">
          <mxGeometry x="760" y="2382" width="45" height="30" as="geometry" />
        </mxCell>
      </root>
    </mxGraphModel>
  </diagram>
</mxfile>
